%!PS-Adobe-3.0 EPSF-3.0
%%BoundingBox: 0 0 313 374
%%Title: Chart
%%Creator: ()
%%CreationDate: (2020-11-21T07:23:43.703)
%%DocumentNeededResources: font SansSerif.plain
%%+ font SansSerif.bold
/m { moveto } def
/x { closepath } def
/c { curveto } def
/l { lineto } def
/s { stroke } def
/f { fill } def
/flip { 1 -1 scale } def
/cs { gsave } def
 /cr { currentlinewidth currentlinecap currentlinejoin currentmiterlimit currentdash currentrgbcolor currentfont matrix currentmatrix
grestore
setmatrix setfont setrgbcolor setdash setmiterlimit setlinejoin setlinecap setlinewidth } def

gsave
0 374.2 translate
0.74999994039536 -0.74999994039536 scale
cs
1 1 1 setrgbcolor
0 0 m
 418 0 l
 418 499 l
 0 499 l
 0 0 l
 x
 f
3.5 5 m
 407.6 5 l
 407.6 499 l
 3.5 499 l
 3.5 5 l
 x
 f
80.8 5 m
 407.6 5 l
 407.6 434.5 l
 80.8 434.5 l
 80.8 5 l
 x
 f
0.7 0.7 0.7 setrgbcolor
2 setmiterlimit
0 setlinecap 0 setlinejoin
cr cs 80.8 5 m
 80.8 434.5 l
 407.6 434.5 l
 407.6 5 l
 x
 clip newpath
80.8 357.8 m
 407.6 357.8 l
 s
80.8 247.4 m
 407.6 247.4 l
 s
80.8 136.9 m
 407.6 136.9 l
 s
80.8 26.5 m
 407.6 26.5 l
 s
0 0 0 setrgbcolor
0.7 setlinewidth
1.3 setmiterlimit
cr cs 80.8 434.5 m
 407.6 434.5 l
 s
/SansSerif.bold [16 0 0 -16 0 0] selectfont
207 488 m
 207 476.6 l
 209.3 476.6 l
 209.3 486 l
 215 486 l
 215 488 l
 207 488 l
 x
 218.5 482.2 m
 216.5 481.8 l
 216.8 481 217.1 480.4 217.7 480 c
 218.2 479.7 219.1 479.5 220.1 479.5 c
 221.1 479.5 221.8 479.6 222.3 479.8 c
 222.8 480 223.1 480.3 223.3 480.7 c
 223.5 481.1 223.6 481.7 223.6 482.7 c
 223.6 485.2 l
 223.6 485.9 223.6 486.5 223.7 486.8 c
 223.8 487.2 223.9 487.6 224.1 488 c
 221.9 488 l
 221.9 487.8 221.8 487.6 221.7 487.3 c
 221.7 487.2 221.6 487.1 221.6 487 c
 221.3 487.4 220.9 487.7 220.4 487.9 c
 220 488 219.6 488.1 219.1 488.1 c
 218.2 488.1 217.5 487.9 217 487.4 c
 216.6 487 216.3 486.4 216.3 485.7 c
 216.3 485.2 216.4 484.8 216.6 484.4 c
 216.9 484.1 217.2 483.8 217.6 483.6 c
 218 483.4 218.6 483.2 219.3 483.1 c
 220.4 482.9 221.1 482.7 221.5 482.5 c
 221.5 482.3 l
 221.5 481.9 221.4 481.6 221.2 481.4 c
 220.9 481.2 220.6 481.1 220 481.1 c
 219.6 481.1 219.3 481.2 219.1 481.4 c
 218.8 481.5 218.7 481.8 218.5 482.2 c
 x
 221.5 484 m
 221.2 484.1 220.7 484.2 220.1 484.3 c
 219.5 484.4 219.1 484.6 218.9 484.7 c
 218.6 484.9 218.5 485.1 218.5 485.5 c
 218.5 485.8 218.6 486 218.8 486.3 c
 219.1 486.5 219.4 486.6 219.7 486.6 c
 220.1 486.6 220.5 486.5 220.9 486.2 c
 221.1 486 221.3 485.8 221.4 485.5 c
 221.4 485.3 221.5 484.9 221.5 484.4 c
 221.5 484 l
 x
 233.4 488 m
 231.2 488 l
 231.2 483.7 l
 231.2 482.8 231.2 482.2 231.1 482 c
 231 481.7 230.8 481.5 230.6 481.4 c
 230.4 481.2 230.2 481.1 229.9 481.1 c
 229.5 481.1 229.2 481.2 228.9 481.5 c
 228.6 481.7 228.3 481.9 228.2 482.3 c
 228.1 482.6 228.1 483.3 228.1 484.2 c
 228.1 488 l
 225.9 488 l
 225.9 479.7 l
 227.9 479.7 l
 227.9 480.9 l
 228.6 479.9 229.5 479.5 230.6 479.5 c
 231.1 479.5 231.6 479.6 232 479.7 c
 232.4 479.9 232.7 480.1 232.9 480.4 c
 233.1 480.7 233.2 481 233.3 481.3 c
 233.4 481.7 233.4 482.1 233.4 482.8 c
 233.4 488 l
 x
 235.7 488.5 m
 238.2 488.8 l
 238.2 489.1 238.3 489.3 238.5 489.4 c
 238.7 489.6 239 489.6 239.5 489.6 c
 240 489.6 240.5 489.6 240.7 489.4 c
 240.9 489.3 241.1 489.1 241.2 488.8 c
 241.3 488.6 241.3 488.3 241.3 487.8 c
 241.3 486.6 l
 240.6 487.5 239.8 488 238.8 488 c
 237.7 488 236.8 487.5 236.2 486.5 c
 235.6 485.8 235.4 484.9 235.4 483.7 c
 235.4 482.4 235.7 481.3 236.4 480.6 c
 237.1 479.8 237.9 479.5 238.9 479.5 c
 239.9 479.5 240.8 479.9 241.4 480.8 c
 241.4 479.7 l
 243.5 479.7 l
 243.5 487.1 l
 243.5 488.1 243.4 488.8 243.2 489.3 c
 243.1 489.8 242.9 490.2 242.6 490.4 c
 242.3 490.7 241.9 490.9 241.4 491.1 c
 240.9 491.2 240.3 491.3 239.5 491.3 c
 238.1 491.3 237.1 491.1 236.6 490.6 c
 236 490.1 235.7 489.5 235.7 488.8 c
 235.7 488.7 235.7 488.6 235.7 488.5 c
 x
 237.6 483.6 m
 237.6 484.5 237.8 485.2 238.2 485.6 c
 238.5 486 238.9 486.2 239.4 486.2 c
 240 486.2 240.4 486 240.8 485.5 c
 241.1 485.1 241.3 484.5 241.3 483.7 c
 241.3 482.8 241.1 482.2 240.8 481.8 c
 240.4 481.3 240 481.1 239.5 481.1 c
 238.9 481.1 238.5 481.3 238.2 481.8 c
 237.8 482.2 237.6 482.8 237.6 483.6 c
 x
 251.3 488 m
 251.3 486.7 l
 251 487.1 250.6 487.5 250.2 487.8 c
 249.7 488 249.1 488.1 248.6 488.1 c
 248 488.1 247.5 488 247.1 487.8 c
 246.7 487.5 246.3 487.2 246.1 486.7 c
 245.9 486.3 245.8 485.7 245.8 484.9 c
 245.8 479.7 l
 248 479.7 l
 248 483.5 l
 248 484.6 248.1 485.3 248.2 485.6 c
 248.2 485.9 248.4 486.1 248.6 486.2 c
 248.8 486.4 249.1 486.5 249.4 486.5 c
 249.8 486.5 250.1 486.4 250.4 486.2 c
 250.7 485.9 250.9 485.7 251 485.4 c
 251.1 485.1 251.2 484.3 251.2 483.2 c
 251.2 479.7 l
 253.4 479.7 l
 253.4 488 l
 251.3 488 l
 x
 257.5 482.2 m
 255.5 481.8 l
 255.8 481 256.1 480.4 256.7 480 c
 257.2 479.7 258.1 479.5 259.1 479.5 c
 260.1 479.5 260.8 479.6 261.3 479.8 c
 261.8 480 262.1 480.3 262.3 480.7 c
 262.5 481.1 262.6 481.7 262.6 482.7 c
 262.6 485.2 l
 262.6 485.9 262.6 486.5 262.7 486.8 c
 262.8 487.2 262.9 487.6 263.1 488 c
 260.9 488 l
 260.9 487.8 260.8 487.6 260.7 487.3 c
 260.7 487.2 260.6 487.1 260.6 487 c
 260.3 487.4 259.9 487.7 259.4 487.9 c
 259 488 258.6 488.1 258.1 488.1 c
 257.2 488.1 256.5 487.9 256 487.4 c
 255.6 487 255.3 486.4 255.3 485.7 c
 255.3 485.2 255.4 484.8 255.6 484.4 c
 255.9 484.1 256.2 483.8 256.6 483.6 c
 257 483.4 257.6 483.2 258.3 483.1 c
 259.4 482.9 260.1 482.7 260.5 482.5 c
 260.5 482.3 l
 260.5 481.9 260.4 481.6 260.2 481.4 c
 259.9 481.2 259.6 481.1 259 481.1 c
 258.6 481.1 258.3 481.2 258.1 481.4 c
 257.8 481.5 257.7 481.8 257.5 482.2 c
 x
 260.5 484 m
 260.2 484.1 259.7 484.2 259.1 484.3 c
 258.5 484.4 258.1 484.6 257.9 484.7 c
 257.6 484.9 257.5 485.1 257.5 485.5 c
 257.5 485.8 257.6 486 257.8 486.3 c
 258.1 486.5 258.4 486.6 258.7 486.6 c
 259.1 486.6 259.5 486.5 259.9 486.2 c
 260.1 486 260.3 485.8 260.4 485.5 c
 260.4 485.3 260.5 484.9 260.5 484.4 c
 260.5 484 l
 x
 264.7 488.5 m
 267.2 488.8 l
 267.2 489.1 267.3 489.3 267.5 489.4 c
 267.7 489.6 268 489.6 268.5 489.6 c
 269 489.6 269.5 489.6 269.7 489.4 c
 269.9 489.3 270.1 489.1 270.2 488.8 c
 270.3 488.6 270.3 488.3 270.3 487.8 c
 270.3 486.6 l
 269.6 487.5 268.8 488 267.8 488 c
 266.7 488 265.8 487.5 265.2 486.5 c
 264.6 485.8 264.4 484.9 264.4 483.7 c
 264.4 482.4 264.7 481.3 265.4 480.6 c
 266.1 479.8 266.9 479.5 267.9 479.5 c
 268.9 479.5 269.8 479.9 270.4 480.8 c
 270.4 479.7 l
 272.5 479.7 l
 272.5 487.1 l
 272.5 488.1 272.4 488.8 272.2 489.3 c
 272.1 489.8 271.9 490.2 271.6 490.4 c
 271.3 490.7 270.9 490.9 270.4 491.1 c
 269.9 491.2 269.3 491.3 268.5 491.3 c
 267.1 491.3 266.1 491.1 265.6 490.6 c
 265 490.1 264.7 489.5 264.7 488.8 c
 264.7 488.7 264.7 488.6 264.7 488.5 c
 x
 266.6 483.6 m
 266.6 484.5 266.8 485.2 267.2 485.6 c
 267.5 486 267.9 486.2 268.4 486.2 c
 269 486.2 269.4 486 269.8 485.5 c
 270.1 485.1 270.3 484.5 270.3 483.7 c
 270.3 482.8 270.1 482.2 269.8 481.8 c
 269.4 481.3 269 481.1 268.5 481.1 c
 267.9 481.1 267.5 481.3 267.2 481.8 c
 266.8 482.2 266.6 482.8 266.6 483.6 c
 x
 279.7 485.3 m
 281.9 485.7 l
 281.6 486.5 281.1 487.1 280.5 487.5 c
 279.9 487.9 279.2 488.1 278.3 488.1 c
 276.8 488.1 275.8 487.7 275.1 486.7 c
 274.5 486 274.2 485 274.2 483.9 c
 274.2 482.5 274.6 481.4 275.3 480.6 c
 276 479.9 277 479.5 278 479.5 c
 279.3 479.5 280.3 479.9 281 480.7 c
 281.7 481.5 282 482.7 282 484.4 c
 276.5 484.4 l
 276.5 485.1 276.7 485.6 277 486 c
 277.4 486.3 277.8 486.5 278.3 486.5 c
 278.6 486.5 278.9 486.4 279.2 486.2 c
 279.4 486 279.6 485.7 279.7 485.3 c
 x
 279.8 483.1 m
 279.8 482.5 279.6 482 279.3 481.6 c
 279 481.3 278.6 481.1 278.2 481.1 c
 277.7 481.1 277.3 481.3 277 481.7 c
 276.7 482 276.5 482.5 276.5 483.1 c
 279.8 483.1 l
 x
 f
/SansSerif.plain [16 0 0 -16 0 0] selectfont
311.5 451.9 m
 312.9 451.8 l
 313 452.3 313.1 452.8 313.4 453.2 c
 313.6 453.5 314 453.8 314.6 454.1 c
 315.1 454.3 315.7 454.4 316.3 454.4 c
 316.9 454.4 317.4 454.3 317.8 454.1 c
 318.3 454 318.6 453.7 318.8 453.4 c
 319 453.1 319.1 452.8 319.1 452.5 c
 319.1 452.1 319 451.8 318.8 451.5 c
 318.6 451.3 318.3 451 317.8 450.8 c
 317.5 450.7 316.8 450.5 315.8 450.3 c
 314.7 450 314 449.8 313.6 449.6 c
 313 449.3 312.6 448.9 312.3 448.5 c
 312.1 448.1 311.9 447.6 311.9 447.1 c
 311.9 446.5 312.1 446 312.4 445.5 c
 312.8 445 313.2 444.6 313.9 444.3 c
 314.5 444 315.2 443.9 316 443.9 c
 316.8 443.9 317.6 444.1 318.2 444.3 c
 318.9 444.6 319.4 445 319.7 445.5 c
 320.1 446.1 320.2 446.7 320.3 447.3 c
 318.8 447.5 l
 318.7 446.7 318.5 446.2 318 445.8 c
 317.6 445.4 316.9 445.3 316 445.3 c
 315.1 445.3 314.4 445.4 314 445.8 c
 313.6 446.1 313.4 446.5 313.4 447 c
 313.4 447.4 313.5 447.7 313.8 448 c
 314.1 448.3 314.9 448.5 316.1 448.8 c
 317.4 449.1 318.2 449.3 318.7 449.5 c
 319.3 449.8 319.8 450.2 320.1 450.7 c
 320.5 451.2 320.6 451.7 320.6 452.3 c
 320.6 452.9 320.4 453.5 320.1 454.1 c
 319.7 454.6 319.2 455 318.6 455.3 c
 317.9 455.6 317.2 455.8 316.4 455.8 c
 315.3 455.8 314.5 455.6 313.8 455.3 c
 313.1 455 312.5 454.6 312.1 454 c
 311.7 453.3 311.5 452.7 311.5 451.9 c
 x
 322.8 455.6 m
 322.8 447.3 l
 324.1 447.3 l
 324.1 448.4 l
 324.3 448 324.7 447.7 325.1 447.5 c
 325.6 447.2 326.1 447.1 326.6 447.1 c
 327.2 447.1 327.7 447.2 328.1 447.5 c
 328.5 447.7 328.8 448.1 328.9 448.5 c
 329.6 447.6 330.5 447.1 331.5 447.1 c
 332.3 447.1 333 447.3 333.4 447.8 c
 333.9 448.2 334.1 448.9 334.1 449.9 c
 334.1 455.6 l
 332.7 455.6 l
 332.7 450.3 l
 332.7 449.8 332.6 449.4 332.5 449.1 c
 332.4 448.9 332.3 448.7 332 448.5 c
 331.8 448.4 331.5 448.3 331.2 448.3 c
 330.6 448.3 330.1 448.5 329.7 448.9 c
 329.4 449.3 329.2 449.9 329.2 450.7 c
 329.2 455.6 l
 327.8 455.6 l
 327.8 450.2 l
 327.8 449.6 327.6 449.1 327.4 448.8 c
 327.2 448.5 326.8 448.3 326.3 448.3 c
 325.9 448.3 325.5 448.4 325.2 448.6 c
 324.9 448.8 324.6 449.1 324.5 449.5 c
 324.3 449.9 324.2 450.5 324.2 451.3 c
 324.2 455.6 l
 322.8 455.6 l
 x
 341.2 454.5 m
 340.7 455 340.2 455.3 339.7 455.5 c
 339.3 455.7 338.7 455.8 338.2 455.8 c
 337.3 455.8 336.6 455.5 336.1 455.1 c
 335.6 454.6 335.4 454.1 335.4 453.4 c
 335.4 453 335.4 452.6 335.6 452.3 c
 335.8 451.9 336.1 451.7 336.4 451.5 c
 336.7 451.3 337 451.1 337.4 451 c
 337.6 450.9 338.1 450.9 338.6 450.8 c
 339.8 450.7 340.6 450.5 341.1 450.3 c
 341.1 450.1 341.1 450 341.1 449.9 c
 341.1 449.4 341 449 340.7 448.7 c
 340.4 448.4 339.8 448.2 339.1 448.2 c
 338.5 448.2 338 448.4 337.7 448.6 c
 337.4 448.8 337.1 449.2 337 449.8 c
 335.6 449.6 l
 335.7 449.1 335.9 448.6 336.2 448.2 c
 336.5 447.9 336.9 447.6 337.5 447.4 c
 338 447.2 338.6 447.1 339.3 447.1 c
 340 447.1 340.6 447.2 341.1 447.3 c
 341.5 447.5 341.8 447.7 342 448 c
 342.2 448.2 342.4 448.5 342.5 448.9 c
 342.5 449.2 342.6 449.6 342.6 450.2 c
 342.6 452.1 l
 342.6 453.4 342.6 454.2 342.6 454.6 c
 342.7 454.9 342.8 455.3 343 455.6 c
 341.5 455.6 l
 341.4 455.3 341.3 454.9 341.2 454.5 c
 x
 341.1 451.4 m
 340.6 451.6 339.9 451.8 338.8 451.9 c
 338.3 452 337.8 452.1 337.6 452.2 c
 337.4 452.3 337.2 452.5 337 452.7 c
 336.9 452.9 336.9 453.1 336.9 453.3 c
 336.9 453.7 337 454 337.3 454.3 c
 337.6 454.5 338 454.7 338.5 454.7 c
 339.1 454.7 339.5 454.5 340 454.3 c
 340.4 454.1 340.7 453.7 340.9 453.3 c
 341.1 453 341.1 452.5 341.1 451.9 c
 341.1 451.4 l
 x
 344.8 455.6 m
 344.8 444.1 l
 346.2 444.1 l
 346.2 455.6 l
 344.8 455.6 l
 x
 347.8 455.6 m
 347.8 444.1 l
 349.2 444.1 l
 349.2 455.6 l
 347.8 455.6 l
 x
 353.9 454.3 m
 354.1 455.6 l
 353.7 455.6 353.4 455.7 353 455.7 c
 352.5 455.7 352.1 455.6 351.9 455.4 c
 351.6 455.3 351.4 455.1 351.3 454.8 c
 351.1 454.5 351.1 454 351.1 453.1 c
 351.1 448.4 l
 350.1 448.4 l
 350.1 447.3 l
 351.1 447.3 l
 351.1 445.2 l
 352.5 444.4 l
 352.5 447.3 l
 353.9 447.3 l
 353.9 448.4 l
 352.5 448.4 l
 352.5 453.2 l
 352.5 453.6 352.5 453.9 352.6 454 c
 352.6 454.1 352.7 454.2 352.8 454.3 c
 352.9 454.3 353.1 454.4 353.3 454.4 c
 353.4 454.4 353.6 454.4 353.9 454.3 c
 x
 360.2 454.5 m
 359.7 455 359.2 455.3 358.7 455.5 c
 358.3 455.7 357.7 455.8 357.2 455.8 c
 356.3 455.8 355.6 455.5 355.1 455.1 c
 354.6 454.6 354.4 454.1 354.4 453.4 c
 354.4 453 354.4 452.6 354.6 452.3 c
 354.8 451.9 355.1 451.7 355.4 451.5 c
 355.7 451.3 356 451.1 356.4 451 c
 356.6 450.9 357.1 450.9 357.6 450.8 c
 358.8 450.7 359.6 450.5 360.1 450.3 c
 360.1 450.1 360.1 450 360.1 449.9 c
 360.1 449.4 360 449 359.7 448.7 c
 359.4 448.4 358.8 448.2 358.1 448.2 c
 357.5 448.2 357 448.4 356.7 448.6 c
 356.4 448.8 356.1 449.2 356 449.8 c
 354.6 449.6 l
 354.7 449.1 354.9 448.6 355.2 448.2 c
 355.5 447.9 355.9 447.6 356.5 447.4 c
 357 447.2 357.6 447.1 358.3 447.1 c
 359 447.1 359.6 447.2 360.1 447.3 c
 360.5 447.5 360.8 447.7 361 448 c
 361.2 448.2 361.4 448.5 361.5 448.9 c
 361.5 449.2 361.6 449.6 361.6 450.2 c
 361.6 452.1 l
 361.6 453.4 361.6 454.2 361.6 454.6 c
 361.7 454.9 361.8 455.3 362 455.6 c
 360.5 455.6 l
 360.4 455.3 360.3 454.9 360.2 454.5 c
 x
 360.1 451.4 m
 359.6 451.6 358.9 451.8 357.8 451.9 c
 357.3 452 356.8 452.1 356.6 452.2 c
 356.4 452.3 356.2 452.5 356 452.7 c
 355.9 452.9 355.9 453.1 355.9 453.3 c
 355.9 453.7 356 454 356.3 454.3 c
 356.6 454.5 357 454.7 357.5 454.7 c
 358.1 454.7 358.5 454.5 359 454.3 c
 359.4 454.1 359.7 453.7 359.9 453.3 c
 360.1 453 360.1 452.5 360.1 451.9 c
 360.1 451.4 l
 x
 363.8 455.6 m
 363.8 444.1 l
 365.2 444.1 l
 365.2 455.6 l
 363.8 455.6 l
 x
 366.8 455.6 m
 366.8 444.1 l
 368.2 444.1 l
 368.2 450.7 l
 371.6 447.3 l
 373.4 447.3 l
 370.2 450.4 l
 373.7 455.6 l
 372 455.6 l
 369.2 451.3 l
 368.2 452.3 l
 368.2 455.6 l
 366.8 455.6 l
 x
 f
228.2 452.3 m
 229.6 452.1 l
 229.6 453 229.8 453.6 230.1 453.9 c
 230.4 454.3 230.8 454.4 231.3 454.4 c
 231.6 454.4 232 454.3 232.3 454.2 c
 232.5 454 232.7 453.7 232.8 453.4 c
 232.9 453.1 233 452.7 233 452 c
 233 444.1 l
 234.5 444.1 l
 234.5 451.9 l
 234.5 452.9 234.4 453.6 234.1 454.1 c
 233.9 454.7 233.5 455.1 233 455.4 c
 232.5 455.6 232 455.8 231.3 455.8 c
 230.3 455.8 229.5 455.5 229 454.9 c
 228.4 454.3 228.2 453.5 228.2 452.3 c
 x
 242.2 454.5 m
 241.7 455 241.2 455.3 240.7 455.5 c
 240.2 455.7 239.7 455.8 239.2 455.8 c
 238.2 455.8 237.5 455.5 237 455.1 c
 236.6 454.6 236.3 454.1 236.3 453.4 c
 236.3 453 236.4 452.6 236.6 452.3 c
 236.8 451.9 237 451.7 237.3 451.5 c
 237.6 451.3 238 451.1 238.3 451 c
 238.6 450.9 239 450.9 239.6 450.8 c
 240.7 450.7 241.6 450.5 242.1 450.3 c
 242.1 450.1 242.1 450 242.1 449.9 c
 242.1 449.4 242 449 241.7 448.7 c
 241.3 448.4 240.8 448.2 240.1 448.2 c
 239.4 448.2 238.9 448.4 238.6 448.6 c
 238.3 448.8 238.1 449.2 237.9 449.8 c
 236.6 449.6 l
 236.7 449.1 236.9 448.6 237.2 448.2 c
 237.5 447.9 237.9 447.6 238.4 447.4 c
 239 447.2 239.6 447.1 240.3 447.1 c
 241 447.1 241.6 447.2 242 447.3 c
 242.5 447.5 242.8 447.7 243 448 c
 243.2 448.2 243.4 448.5 243.4 448.9 c
 243.5 449.2 243.5 449.6 243.5 450.2 c
 243.5 452.1 l
 243.5 453.4 243.5 454.2 243.6 454.6 c
 243.7 454.9 243.8 455.3 244 455.6 c
 242.5 455.6 l
 242.3 455.3 242.2 454.9 242.2 454.5 c
 x
 242.1 451.4 m
 241.6 451.6 240.8 451.8 239.8 451.9 c
 239.2 452 238.8 452.1 238.6 452.2 c
 238.3 452.3 238.1 452.5 238 452.7 c
 237.9 452.9 237.8 453.1 237.8 453.3 c
 237.8 453.7 238 454 238.2 454.3 c
 238.5 454.5 238.9 454.7 239.5 454.7 c
 240 454.7 240.5 454.5 240.9 454.3 c
 241.4 454.1 241.7 453.7 241.9 453.3 c
 242 453 242.1 452.5 242.1 451.9 c
 242.1 451.4 l
 x
 248.1 455.6 m
 244.9 447.3 l
 246.4 447.3 l
 248.2 452.2 l
 248.4 452.8 248.6 453.3 248.7 453.9 c
 248.9 453.5 249 453 249.3 452.3 c
 251.1 447.3 l
 252.5 447.3 l
 249.4 455.6 l
 248.1 455.6 l
 x
 258.2 454.5 m
 257.7 455 257.2 455.3 256.7 455.5 c
 256.2 455.7 255.7 455.8 255.2 455.8 c
 254.2 455.8 253.5 455.5 253 455.1 c
 252.6 454.6 252.3 454.1 252.3 453.4 c
 252.3 453 252.4 452.6 252.6 452.3 c
 252.8 451.9 253 451.7 253.3 451.5 c
 253.6 451.3 254 451.1 254.3 451 c
 254.6 450.9 255 450.9 255.6 450.8 c
 256.7 450.7 257.6 450.5 258.1 450.3 c
 258.1 450.1 258.1 450 258.1 449.9 c
 258.1 449.4 258 449 257.7 448.7 c
 257.3 448.4 256.8 448.2 256.1 448.2 c
 255.4 448.2 254.9 448.4 254.6 448.6 c
 254.3 448.8 254.1 449.2 253.9 449.8 c
 252.6 449.6 l
 252.7 449.1 252.9 448.6 253.2 448.2 c
 253.5 447.9 253.9 447.6 254.4 447.4 c
 255 447.2 255.6 447.1 256.3 447.1 c
 257 447.1 257.6 447.2 258 447.3 c
 258.5 447.5 258.8 447.7 259 448 c
 259.2 448.2 259.4 448.5 259.4 448.9 c
 259.5 449.2 259.5 449.6 259.5 450.2 c
 259.5 452.1 l
 259.5 453.4 259.5 454.2 259.6 454.6 c
 259.7 454.9 259.8 455.3 260 455.6 c
 258.5 455.6 l
 258.3 455.3 258.2 454.9 258.2 454.5 c
 x
 258.1 451.4 m
 257.6 451.6 256.8 451.8 255.8 451.9 c
 255.2 452 254.8 452.1 254.6 452.2 c
 254.3 452.3 254.1 452.5 254 452.7 c
 253.9 452.9 253.8 453.1 253.8 453.3 c
 253.8 453.7 254 454 254.2 454.3 c
 254.5 454.5 254.9 454.7 255.5 454.7 c
 256 454.7 256.5 454.5 256.9 454.3 c
 257.4 454.1 257.7 453.7 257.9 453.3 c
 258 453 258.1 452.5 258.1 451.9 c
 258.1 451.4 l
 x
 f
128.3 451.1 m
 128.3 449.7 l
 133.1 449.7 l
 133.1 454 l
 132.4 454.6 131.6 455 130.8 455.3 c
 130 455.6 129.2 455.8 128.4 455.8 c
 127.3 455.8 126.2 455.5 125.3 455.1 c
 124.4 454.6 123.7 453.9 123.3 453 c
 122.8 452 122.6 451 122.6 449.9 c
 122.6 448.8 122.8 447.7 123.2 446.8 c
 123.7 445.8 124.4 445.1 125.3 444.6 c
 126.1 444.2 127.1 443.9 128.3 443.9 c
 129.1 443.9 129.9 444.1 130.5 444.3 c
 131.2 444.6 131.7 445 132.1 445.5 c
 132.5 445.9 132.8 446.6 133 447.3 c
 131.6 447.7 l
 131.4 447.1 131.2 446.7 131 446.3 c
 130.7 446 130.3 445.7 129.9 445.5 c
 129.4 445.3 128.9 445.2 128.3 445.2 c
 127.6 445.2 127 445.3 126.5 445.5 c
 126 445.8 125.6 446 125.3 446.4 c
 125 446.7 124.7 447.1 124.6 447.5 c
 124.3 448.2 124.1 449 124.1 449.8 c
 124.1 450.8 124.3 451.7 124.6 452.4 c
 125 453.1 125.5 453.6 126.2 453.9 c
 126.8 454.2 127.6 454.4 128.3 454.4 c
 129 454.4 129.6 454.3 130.2 454 c
 130.9 453.8 131.3 453.5 131.7 453.2 c
 131.7 451.1 l
 128.3 451.1 l
 x
 134.7 455.6 m
 134.7 447.3 l
 136 447.3 l
 136 448.5 l
 136.3 447.9 136.6 447.6 136.9 447.4 c
 137.2 447.2 137.5 447.1 137.8 447.1 c
 138.3 447.1 138.7 447.2 139.2 447.5 c
 138.8 448.8 l
 138.4 448.6 138.1 448.5 137.7 448.5 c
 137.4 448.5 137.1 448.6 136.9 448.8 c
 136.7 449 136.5 449.3 136.4 449.6 c
 136.2 450.1 136.1 450.6 136.1 451.2 c
 136.1 455.6 l
 134.7 455.6 l
 x
 139.2 451.4 m
 139.2 449.9 139.6 448.8 140.5 448 c
 141.2 447.4 142.1 447.1 143.1 447.1 c
 144.3 447.1 145.2 447.5 145.9 448.2 c
 146.6 449 147 450 147 451.3 c
 147 452.4 146.8 453.2 146.5 453.8 c
 146.2 454.4 145.7 454.9 145.1 455.3 c
 144.5 455.6 143.8 455.8 143.1 455.8 c
 142 455.8 141 455.4 140.3 454.6 c
 139.6 453.9 139.2 452.8 139.2 451.4 c
 x
 140.7 451.4 m
 140.7 452.5 140.9 453.3 141.4 453.8 c
 141.8 454.3 142.4 454.6 143.1 454.6 c
 143.8 454.6 144.4 454.3 144.9 453.8 c
 145.3 453.3 145.6 452.5 145.6 451.4 c
 145.6 450.4 145.3 449.6 144.9 449 c
 144.4 448.5 143.8 448.2 143.1 448.2 c
 142.4 448.2 141.8 448.5 141.4 449 c
 140.9 449.6 140.7 450.4 140.7 451.4 c
 x
 148.2 451.4 m
 148.2 449.9 148.6 448.8 149.5 448 c
 150.2 447.4 151.1 447.1 152.1 447.1 c
 153.3 447.1 154.2 447.5 154.9 448.2 c
 155.6 449 156 450 156 451.3 c
 156 452.4 155.8 453.2 155.5 453.8 c
 155.2 454.4 154.7 454.9 154.1 455.3 c
 153.5 455.6 152.8 455.8 152.1 455.8 c
 151 455.8 150 455.4 149.3 454.6 c
 148.6 453.9 148.2 452.8 148.2 451.4 c
 x
 149.7 451.4 m
 149.7 452.5 149.9 453.3 150.4 453.8 c
 150.8 454.3 151.4 454.6 152.1 454.6 c
 152.8 454.6 153.4 454.3 153.9 453.8 c
 154.3 453.3 154.6 452.5 154.6 451.4 c
 154.6 450.4 154.3 449.6 153.9 449 c
 153.4 448.5 152.8 448.2 152.1 448.2 c
 151.4 448.2 150.8 448.5 150.4 449 c
 149.9 449.6 149.7 450.4 149.7 451.4 c
 x
 160.1 455.6 m
 156.9 447.3 l
 158.4 447.3 l
 160.2 452.2 l
 160.4 452.8 160.5 453.3 160.7 453.9 c
 160.8 453.5 161 453 161.2 452.3 c
 163.1 447.3 l
 164.5 447.3 l
 161.4 455.6 l
 160.1 455.6 l
 x
 164.7 458.8 m
 164.5 457.5 l
 164.8 457.5 165.1 457.6 165.3 457.6 c
 165.6 457.6 165.9 457.5 166.1 457.4 c
 166.3 457.3 166.4 457.2 166.6 457 c
 166.6 456.8 166.8 456.5 167 455.9 c
 167 455.9 167 455.7 167.1 455.6 c
 164 447.3 l
 165.5 447.3 l
 167.2 452.1 l
 167.4 452.7 167.6 453.3 167.8 454 c
 168 453.4 168.1 452.7 168.4 452.1 c
 170.1 447.3 l
 171.6 447.3 l
 168.4 455.7 l
 168.1 456.6 167.8 457.3 167.6 457.6 c
 167.4 458.1 167.1 458.4 166.8 458.6 c
 166.4 458.8 166 459 165.6 459 c
 165.3 459 165 458.9 164.7 458.8 c
 x
 f
80.8 5 m
 80.8 434.5 l
 s
/SansSerif.bold [16 0 0 -16 0 0] selectfont
0 0 translate
270 rotate
-0 -0 translate
-288.5 25.5 m
 -288.5 16 l
 -291.9 16 l
 -291.9 14.1 l
 -282.8 14.1 l
 -282.8 16 l
 -286.2 16 l
 -286.2 25.5 l
 -288.5 25.5 l
 x
 -281.1 16.1 m
 -281.1 14.1 l
 -278.9 14.1 l
 -278.9 16.1 l
 -281.1 16.1 l
 x
 -281.1 25.5 m
 -281.1 17.2 l
 -278.9 17.2 l
 -278.9 25.5 l
 -281.1 25.5 l
 x
 -277.3 17.2 m
 -275.2 17.2 l
 -275.2 18.4 l
 -274.5 17.5 -273.6 17.1 -272.6 17.1 c
 -272.1 17.1 -271.7 17.2 -271.3 17.4 c
 -270.9 17.6 -270.6 17.9 -270.3 18.4 c
 -269.9 17.9 -269.5 17.6 -269.1 17.4 c
 -268.7 17.2 -268.3 17.1 -267.8 17.1 c
 -267.2 17.1 -266.6 17.2 -266.2 17.4 c
 -265.8 17.7 -265.5 18 -265.3 18.5 c
 -265.1 18.9 -265.1 19.4 -265.1 20.2 c
 -265.1 25.5 l
 -267.2 25.5 l
 -267.2 20.8 l
 -267.2 20 -267.3 19.4 -267.5 19.2 c
 -267.7 18.9 -268 18.7 -268.4 18.7 c
 -268.7 18.7 -269 18.8 -269.3 19 c
 -269.5 19.2 -269.7 19.5 -269.9 19.8 c
 -270 20.2 -270 20.8 -270 21.6 c
 -270 25.5 l
 -272.2 25.5 l
 -272.2 21 l
 -272.2 20.2 -272.3 19.7 -272.4 19.4 c
 -272.4 19.2 -272.6 19 -272.7 18.9 c
 -272.9 18.8 -273.1 18.7 -273.4 18.7 c
 -273.7 18.7 -274 18.8 -274.3 19 c
 -274.6 19.2 -274.8 19.4 -274.9 19.8 c
 -275 20.1 -275.1 20.7 -275.1 21.5 c
 -275.1 25.5 l
 -277.3 25.5 l
 -277.3 17.2 l
 x
 -258.3 22.9 m
 -256.1 23.3 l
 -256.4 24.1 -256.8 24.7 -257.4 25.1 c
 -258 25.5 -258.8 25.7 -259.7 25.7 c
 -261.1 25.7 -262.2 25.3 -262.9 24.3 c
 -263.5 23.6 -263.7 22.6 -263.7 21.4 c
 -263.7 20.1 -263.4 19 -262.6 18.2 c
 -261.9 17.4 -261 17.1 -259.9 17.1 c
 -258.7 17.1 -257.7 17.5 -257 18.3 c
 -256.3 19.1 -255.9 20.3 -256 22 c
 -261.5 22 l
 -261.5 22.7 -261.3 23.2 -261 23.5 c
 -260.6 23.9 -260.2 24.1 -259.7 24.1 c
 -259.3 24.1 -259 24 -258.8 23.8 c
 -258.6 23.6 -258.4 23.3 -258.3 22.9 c
 x
 -258.2 20.7 m
 -258.2 20 -258.3 19.6 -258.6 19.2 c
 -259 18.9 -259.3 18.7 -259.8 18.7 c
 -260.3 18.7 -260.7 18.9 -261 19.3 c
 -261.3 19.6 -261.4 20.1 -261.4 20.7 c
 -258.2 20.7 l
 x
 -251.5 25.5 m
 -251.5 16 l
 -254.9 16 l
 -254.9 14.1 l
 -245.8 14.1 l
 -245.8 16 l
 -249.2 16 l
 -249.2 25.5 l
 -251.5 25.5 l
 x
 -244.6 21.3 m
 -244.6 20.5 -244.4 19.8 -244.1 19.2 c
 -243.7 18.5 -243.2 18 -242.5 17.6 c
 -241.9 17.2 -241.1 17.1 -240.3 17.1 c
 -239.1 17.1 -238 17.5 -237.2 18.3 c
 -236.4 19.1 -236 20.1 -236 21.4 c
 -236 22.6 -236.4 23.7 -237.2 24.5 c
 -238.1 25.3 -239.1 25.7 -240.3 25.7 c
 -241.1 25.7 -241.8 25.6 -242.5 25.2 c
 -243.2 24.9 -243.7 24.4 -244.1 23.7 c
 -244.4 23 -244.6 22.2 -244.6 21.3 c
 x
 -242.3 21.4 m
 -242.3 22.2 -242.2 22.8 -241.8 23.3 c
 -241.4 23.7 -240.9 23.9 -240.3 23.9 c
 -239.7 23.9 -239.3 23.7 -238.9 23.3 c
 -238.5 22.8 -238.3 22.2 -238.3 21.4 c
 -238.3 20.6 -238.5 19.9 -238.9 19.5 c
 -239.3 19.1 -239.7 18.8 -240.3 18.8 c
 -240.9 18.8 -241.4 19.1 -241.8 19.5 c
 -242.2 19.9 -242.3 20.6 -242.3 21.4 c
 x
 -226.7 21.3 m
 -224.5 22 l
 -224.8 23.3 -225.4 24.2 -226.2 24.8 c
 -227 25.4 -228 25.7 -229.3 25.7 c
 -230.8 25.7 -232 25.2 -233 24.2 c
 -234 23.1 -234.5 21.7 -234.5 19.9 c
 -234.5 18 -234 16.5 -233 15.5 c
 -232 14.4 -230.7 13.9 -229.1 13.9 c
 -227.7 13.9 -226.6 14.3 -225.7 15.1 c
 -225.2 15.6 -224.8 16.3 -224.5 17.2 c
 -226.8 17.8 l
 -227 17.2 -227.2 16.7 -227.7 16.4 c
 -228.1 16 -228.6 15.9 -229.2 15.9 c
 -230.1 15.9 -230.8 16.2 -231.3 16.8 c
 -231.8 17.4 -232.1 18.4 -232.1 19.7 c
 -232.1 21.2 -231.8 22.2 -231.3 22.8 c
 -230.8 23.5 -230.1 23.8 -229.3 23.8 c
 -228.7 23.8 -228.1 23.6 -227.7 23.2 c
 -227.3 22.8 -226.9 22.2 -226.7 21.3 c
 x
 -222.6 21.3 m
 -222.6 20.5 -222.4 19.8 -222.1 19.2 c
 -221.7 18.5 -221.2 18 -220.5 17.6 c
 -219.9 17.2 -219.1 17.1 -218.3 17.1 c
 -217.1 17.1 -216 17.5 -215.2 18.3 c
 -214.4 19.1 -214 20.1 -214 21.4 c
 -214 22.6 -214.4 23.7 -215.2 24.5 c
 -216.1 25.3 -217.1 25.7 -218.3 25.7 c
 -219.1 25.7 -219.8 25.6 -220.5 25.2 c
 -221.2 24.9 -221.7 24.4 -222.1 23.7 c
 -222.4 23 -222.6 22.2 -222.6 21.3 c
 x
 -220.3 21.4 m
 -220.3 22.2 -220.2 22.8 -219.8 23.3 c
 -219.4 23.7 -218.9 23.9 -218.3 23.9 c
 -217.7 23.9 -217.3 23.7 -216.9 23.3 c
 -216.5 22.8 -216.3 22.2 -216.3 21.4 c
 -216.3 20.6 -216.5 19.9 -216.9 19.5 c
 -217.3 19.1 -217.7 18.8 -218.3 18.8 c
 -218.9 18.8 -219.4 19.1 -219.8 19.5 c
 -220.2 19.9 -220.3 20.6 -220.3 21.4 c
 x
 -212.3 17.2 m
 -210.2 17.2 l
 -210.2 18.4 l
 -209.5 17.5 -208.6 17.1 -207.6 17.1 c
 -207.1 17.1 -206.7 17.2 -206.3 17.4 c
 -205.9 17.6 -205.6 17.9 -205.3 18.4 c
 -204.9 17.9 -204.5 17.6 -204.1 17.4 c
 -203.7 17.2 -203.3 17.1 -202.8 17.1 c
 -202.2 17.1 -201.6 17.2 -201.2 17.4 c
 -200.8 17.7 -200.5 18 -200.3 18.5 c
 -200.1 18.9 -200.1 19.4 -200.1 20.2 c
 -200.1 25.5 l
 -202.2 25.5 l
 -202.2 20.8 l
 -202.2 20 -202.3 19.4 -202.5 19.2 c
 -202.7 18.9 -203 18.7 -203.4 18.7 c
 -203.7 18.7 -204 18.8 -204.3 19 c
 -204.5 19.2 -204.7 19.5 -204.9 19.8 c
 -205 20.2 -205 20.8 -205 21.6 c
 -205 25.5 l
 -207.2 25.5 l
 -207.2 21 l
 -207.2 20.2 -207.3 19.7 -207.4 19.4 c
 -207.4 19.2 -207.6 19 -207.7 18.9 c
 -207.9 18.8 -208.1 18.7 -208.4 18.7 c
 -208.7 18.7 -209 18.8 -209.3 19 c
 -209.6 19.2 -209.8 19.4 -209.9 19.8 c
 -210 20.1 -210.1 20.7 -210.1 21.5 c
 -210.1 25.5 l
 -212.3 25.5 l
 -212.3 17.2 l
 x
 -198.1 17.2 m
 -196.1 17.2 l
 -196.1 18.5 l
 -195.8 18 -195.5 17.7 -195 17.4 c
 -194.6 17.2 -194.1 17.1 -193.5 17.1 c
 -192.6 17.1 -191.7 17.4 -191.1 18.2 c
 -190.4 18.9 -190.1 20 -190.1 21.3 c
 -190.1 22.7 -190.4 23.8 -191.1 24.6 c
 -191.7 25.3 -192.6 25.7 -193.5 25.7 c
 -194 25.7 -194.4 25.6 -194.8 25.5 c
 -195.1 25.3 -195.5 25 -196 24.5 c
 -196 28.7 l
 -198.1 28.7 l
 -198.1 17.2 l
 x
 -196 21.2 m
 -196 22.2 -195.8 22.9 -195.4 23.3 c
 -195 23.8 -194.6 24 -194.1 24 c
 -193.6 24 -193.1 23.8 -192.8 23.4 c
 -192.5 23 -192.3 22.3 -192.3 21.4 c
 -192.3 20.5 -192.5 19.8 -192.8 19.4 c
 -193.2 19 -193.6 18.8 -194.1 18.8 c
 -194.6 18.8 -195.1 19 -195.4 19.4 c
 -195.8 19.8 -196 20.4 -196 21.2 c
 x
 -188.1 25.5 m
 -188.1 14.1 l
 -185.9 14.1 l
 -185.9 25.5 l
 -188.1 25.5 l
 x
 -179.3 22.9 m
 -177.1 23.3 l
 -177.4 24.1 -177.8 24.7 -178.4 25.1 c
 -179 25.5 -179.8 25.7 -180.7 25.7 c
 -182.1 25.7 -183.2 25.3 -183.9 24.3 c
 -184.5 23.6 -184.7 22.6 -184.7 21.4 c
 -184.7 20.1 -184.4 19 -183.6 18.2 c
 -182.9 17.4 -182 17.1 -180.9 17.1 c
 -179.7 17.1 -178.7 17.5 -178 18.3 c
 -177.3 19.1 -176.9 20.3 -177 22 c
 -182.5 22 l
 -182.5 22.7 -182.3 23.2 -182 23.5 c
 -181.6 23.9 -181.2 24.1 -180.7 24.1 c
 -180.3 24.1 -180 24 -179.8 23.8 c
 -179.6 23.6 -179.4 23.3 -179.3 22.9 c
 x
 -179.2 20.7 m
 -179.2 20 -179.3 19.6 -179.6 19.2 c
 -180 18.9 -180.3 18.7 -180.8 18.7 c
 -181.3 18.7 -181.7 18.9 -182 19.3 c
 -182.3 19.6 -182.4 20.1 -182.4 20.7 c
 -179.2 20.7 l
 x
 -171.3 17.2 m
 -171.3 19 l
 -172.8 19 l
 -172.8 22.3 l
 -172.8 23 -172.8 23.4 -172.7 23.5 c
 -172.7 23.6 -172.6 23.7 -172.5 23.8 c
 -172.4 23.9 -172.3 23.9 -172.2 23.9 c
 -172 23.9 -171.7 23.8 -171.3 23.7 c
 -171.1 25.4 l
 -171.6 25.6 -172.2 25.7 -172.8 25.7 c
 -173.2 25.7 -173.6 25.7 -173.9 25.5 c
 -174.2 25.4 -174.5 25.2 -174.6 25 c
 -174.8 24.8 -174.9 24.5 -174.9 24.1 c
 -175 23.9 -175 23.4 -175 22.6 c
 -175 19 l
 -176 19 l
 -176 17.2 l
 -175 17.2 l
 -175 15.6 l
 -172.8 14.3 l
 -172.8 17.2 l
 -171.3 17.2 l
 x
 -170.1 16.1 m
 -170.1 14.1 l
 -167.9 14.1 l
 -167.9 16.1 l
 -170.1 16.1 l
 x
 -170.1 25.5 m
 -170.1 17.2 l
 -167.9 17.2 l
 -167.9 25.5 l
 -170.1 25.5 l
 x
 -166.6 21.3 m
 -166.6 20.5 -166.4 19.8 -166.1 19.2 c
 -165.7 18.5 -165.2 18 -164.5 17.6 c
 -163.9 17.2 -163.1 17.1 -162.3 17.1 c
 -161.1 17.1 -160 17.5 -159.2 18.3 c
 -158.4 19.1 -158 20.1 -158 21.4 c
 -158 22.6 -158.4 23.7 -159.2 24.5 c
 -160.1 25.3 -161.1 25.7 -162.3 25.7 c
 -163.1 25.7 -163.8 25.6 -164.5 25.2 c
 -165.2 24.9 -165.7 24.4 -166.1 23.7 c
 -166.4 23 -166.6 22.2 -166.6 21.3 c
 x
 -164.3 21.4 m
 -164.3 22.2 -164.2 22.8 -163.8 23.3 c
 -163.4 23.7 -162.9 23.9 -162.3 23.9 c
 -161.7 23.9 -161.3 23.7 -160.9 23.3 c
 -160.5 22.8 -160.3 22.2 -160.3 21.4 c
 -160.3 20.6 -160.5 19.9 -160.9 19.5 c
 -161.3 19.1 -161.7 18.8 -162.3 18.8 c
 -162.9 18.8 -163.4 19.1 -163.8 19.5 c
 -164.2 19.9 -164.3 20.6 -164.3 21.4 c
 x
 -148.5 25.5 m
 -150.7 25.5 l
 -150.7 21.3 l
 -150.7 20.4 -150.8 19.8 -150.9 19.6 c
 -151 19.3 -151.1 19.1 -151.3 18.9 c
 -151.5 18.8 -151.8 18.7 -152.1 18.7 c
 -152.5 18.7 -152.8 18.8 -153.1 19 c
 -153.4 19.2 -153.6 19.5 -153.7 19.9 c
 -153.9 20.2 -153.9 20.8 -153.9 21.8 c
 -153.9 25.5 l
 -156.1 25.5 l
 -156.1 17.2 l
 -154.1 17.2 l
 -154.1 18.5 l
 -153.3 17.5 -152.4 17.1 -151.3 17.1 c
 -150.8 17.1 -150.4 17.1 -150 17.3 c
 -149.6 17.5 -149.3 17.7 -149.1 18 c
 -148.9 18.2 -148.7 18.6 -148.7 18.9 c
 -148.6 19.2 -148.5 19.7 -148.5 20.4 c
 -148.5 25.5 l
 x
 f
0 0 translate
-270 rotate
-0 -0 translate
/SansSerif.plain [11 0 0 -11 0 0] selectfont
44.8 27.6 m
 44.4 27.4 44.1 27.2 43.9 26.9 c
 43.7 26.7 43.6 26.3 43.6 26 c
 43.6 25.4 43.8 24.9 44.2 24.5 c
 44.6 24.1 45.2 23.9 45.9 23.9 c
 46.5 23.9 47.1 24.1 47.5 24.5 c
 47.9 24.9 48.1 25.4 48.1 26 c
 48.1 26.4 48 26.7 47.9 27 c
 47.7 27.2 47.4 27.4 47 27.6 c
 47.5 27.7 47.8 28 48.1 28.3 c
 48.3 28.7 48.5 29.1 48.5 29.6 c
 48.5 30.3 48.2 30.8 47.8 31.3 c
 47.3 31.8 46.6 32 45.9 32 c
 45.1 32 44.5 31.8 44 31.3 c
 43.5 30.8 43.3 30.3 43.3 29.6 c
 43.3 29.1 43.4 28.6 43.7 28.3 c
 43.9 27.9 44.3 27.7 44.8 27.6 c
 x
 44.6 25.9 m
 44.6 26.3 44.7 26.6 44.9 26.9 c
 45.2 27.1 45.5 27.2 45.9 27.2 c
 46.3 27.2 46.6 27.1 46.8 26.9 c
 47 26.6 47.1 26.3 47.1 26 c
 47.1 25.6 47 25.3 46.8 25.1 c
 46.5 24.9 46.2 24.7 45.9 24.7 c
 45.5 24.7 45.2 24.9 44.9 25.1 c
 44.7 25.3 44.6 25.6 44.6 25.9 c
 x
 44.3 29.6 m
 44.3 29.9 44.3 30.1 44.5 30.4 c
 44.6 30.6 44.8 30.8 45 31 c
 45.3 31.1 45.6 31.2 45.9 31.2 c
 46.3 31.2 46.7 31 47 30.7 c
 47.3 30.4 47.5 30.1 47.5 29.6 c
 47.5 29.1 47.3 28.8 47 28.5 c
 46.7 28.2 46.3 28 45.8 28 c
 45.4 28 45 28.1 44.7 28.4 c
 44.4 28.7 44.3 29.1 44.3 29.6 c
 x
 49.3 28 m
 49.3 27 49.4 26.3 49.6 25.7 c
 49.8 25.1 50.1 24.7 50.4 24.4 c
 50.8 24.1 51.3 23.9 51.9 23.9 c
 52.3 23.9 52.6 24 53 24.2 c
 53.3 24.4 53.5 24.6 53.8 24.9 c
 54 25.2 54.1 25.6 54.2 26.1 c
 54.4 26.6 54.4 27.2 54.4 28 c
 54.4 28.9 54.3 29.6 54.1 30.2 c
 53.9 30.8 53.7 31.2 53.3 31.5 c
 52.9 31.8 52.4 32 51.9 32 c
 51.1 32 50.5 31.7 50.1 31.2 c
 49.5 30.5 49.3 29.4 49.3 28 c
 x
 50.3 28 m
 50.3 29.3 50.4 30.1 50.7 30.5 c
 51 31 51.4 31.2 51.9 31.2 c
 52.3 31.2 52.7 31 53 30.5 c
 53.3 30.1 53.4 29.2 53.4 28 c
 53.4 26.7 53.3 25.8 53 25.4 c
 52.7 24.9 52.3 24.7 51.8 24.7 c
 51.4 24.7 51 24.9 50.8 25.3 c
 50.4 25.8 50.3 26.7 50.3 28 c
 x
 55.3 28 m
 55.3 27 55.4 26.3 55.6 25.7 c
 55.8 25.1 56.1 24.7 56.4 24.4 c
 56.8 24.1 57.3 23.9 57.9 23.9 c
 58.3 23.9 58.6 24 59 24.2 c
 59.3 24.4 59.5 24.6 59.8 24.9 c
 60 25.2 60.1 25.6 60.2 26.1 c
 60.4 26.6 60.4 27.2 60.4 28 c
 60.4 28.9 60.3 29.6 60.1 30.2 c
 59.9 30.8 59.7 31.2 59.3 31.5 c
 58.9 31.8 58.4 32 57.9 32 c
 57.1 32 56.5 31.7 56.1 31.2 c
 55.5 30.5 55.3 29.4 55.3 28 c
 x
 56.3 28 m
 56.3 29.3 56.4 30.1 56.7 30.5 c
 57 31 57.4 31.2 57.9 31.2 c
 58.3 31.2 58.7 31 59 30.5 c
 59.3 30.1 59.4 29.2 59.4 28 c
 59.4 26.7 59.3 25.8 59 25.4 c
 58.7 24.9 58.3 24.7 57.8 24.7 c
 57.4 24.7 57 24.9 56.8 25.3 c
 56.4 25.8 56.3 26.7 56.3 28 c
 x
 61.8 31.8 m
 61.8 30.8 l
 62.9 30.8 l
 62.9 31.8 l
 62.9 32.3 62.8 32.6 62.7 32.8 c
 62.6 33.1 62.3 33.3 62 33.4 c
 61.7 33 l
 61.9 32.9 62.1 32.8 62.2 32.6 c
 62.3 32.4 62.4 32.2 62.4 31.8 c
 61.8 31.8 l
 x
 64.3 28 m
 64.3 27 64.4 26.3 64.6 25.7 c
 64.8 25.1 65.1 24.7 65.4 24.4 c
 65.8 24.1 66.3 23.9 66.9 23.9 c
 67.3 23.9 67.6 24 68 24.2 c
 68.3 24.4 68.5 24.6 68.8 24.9 c
 69 25.2 69.1 25.6 69.2 26.1 c
 69.4 26.6 69.4 27.2 69.4 28 c
 69.4 28.9 69.3 29.6 69.1 30.2 c
 68.9 30.8 68.7 31.2 68.3 31.5 c
 67.9 31.8 67.4 32 66.9 32 c
 66.1 32 65.5 31.7 65.1 31.2 c
 64.5 30.5 64.3 29.4 64.3 28 c
 x
 65.3 28 m
 65.3 29.3 65.4 30.1 65.7 30.5 c
 66 31 66.4 31.2 66.9 31.2 c
 67.3 31.2 67.7 31 68 30.5 c
 68.3 30.1 68.4 29.2 68.4 28 c
 68.4 26.7 68.3 25.8 68 25.4 c
 67.7 24.9 67.3 24.7 66.8 24.7 c
 66.4 24.7 66 24.9 65.8 25.3 c
 65.4 25.8 65.3 26.7 65.3 28 c
 x
 70.3 28 m
 70.3 27 70.4 26.3 70.6 25.7 c
 70.8 25.1 71.1 24.7 71.4 24.4 c
 71.8 24.1 72.3 23.9 72.9 23.9 c
 73.3 23.9 73.6 24 74 24.2 c
 74.3 24.4 74.5 24.6 74.8 24.9 c
 75 25.2 75.1 25.6 75.2 26.1 c
 75.4 26.6 75.4 27.2 75.4 28 c
 75.4 28.9 75.3 29.6 75.1 30.2 c
 74.9 30.8 74.7 31.2 74.3 31.5 c
 73.9 31.8 73.4 32 72.9 32 c
 72.1 32 71.5 31.7 71.1 31.2 c
 70.5 30.5 70.3 29.4 70.3 28 c
 x
 71.3 28 m
 71.3 29.3 71.4 30.1 71.7 30.5 c
 72 31 72.4 31.2 72.9 31.2 c
 73.3 31.2 73.7 31 74 30.5 c
 74.3 30.1 74.4 29.2 74.4 28 c
 74.4 26.7 74.3 25.8 74 25.4 c
 73.7 24.9 73.3 24.7 72.8 24.7 c
 72.4 24.7 72 24.9 71.8 25.3 c
 71.4 25.8 71.3 26.7 71.3 28 c
 x
 f
48.3 136.3 m
 47.3 136.4 l
 47.3 136 47.1 135.8 47 135.6 c
 46.7 135.3 46.4 135.2 46 135.2 c
 45.7 135.2 45.4 135.3 45.2 135.4 c
 44.9 135.7 44.6 136 44.5 136.4 c
 44.3 136.8 44.2 137.4 44.2 138.2 c
 44.4 137.9 44.7 137.6 45.1 137.4 c
 45.4 137.3 45.7 137.2 46.1 137.2 c
 46.8 137.2 47.3 137.4 47.8 137.9 c
 48.2 138.4 48.4 139 48.4 139.7 c
 48.4 140.2 48.3 140.7 48.1 141.1 c
 47.9 141.5 47.6 141.9 47.2 142.1 c
 46.9 142.3 46.4 142.4 46 142.4 c
 45.2 142.4 44.5 142.1 44 141.5 c
 43.5 140.9 43.2 140 43.2 138.6 c
 43.2 137.1 43.5 136 44.1 135.3 c
 44.6 134.7 45.2 134.4 46.1 134.4 c
 46.7 134.4 47.2 134.6 47.6 134.9 c
 48 135.3 48.2 135.7 48.3 136.3 c
 x
 44.4 139.7 m
 44.4 140.1 44.4 140.4 44.6 140.7 c
 44.7 141 44.9 141.2 45.2 141.4 c
 45.4 141.6 45.7 141.6 46 141.6 c
 46.4 141.6 46.7 141.5 47 141.1 c
 47.3 140.8 47.5 140.4 47.5 139.8 c
 47.5 139.2 47.3 138.8 47 138.5 c
 46.7 138.2 46.4 138 45.9 138 c
 45.5 138 45.1 138.2 44.8 138.5 c
 44.5 138.8 44.4 139.2 44.4 139.7 c
 x
 49.3 138.4 m
 49.3 137.5 49.4 136.7 49.6 136.2 c
 49.8 135.6 50.1 135.1 50.4 134.8 c
 50.8 134.5 51.3 134.4 51.9 134.4 c
 52.3 134.4 52.6 134.5 53 134.6 c
 53.3 134.8 53.5 135.1 53.8 135.4 c
 54 135.7 54.1 136.1 54.2 136.5 c
 54.4 137 54.4 137.6 54.4 138.4 c
 54.4 139.3 54.3 140.1 54.1 140.6 c
 53.9 141.2 53.7 141.6 53.3 142 c
 52.9 142.3 52.4 142.4 51.9 142.4 c
 51.1 142.4 50.5 142.2 50.1 141.6 c
 49.5 140.9 49.3 139.9 49.3 138.4 c
 x
 50.3 138.4 m
 50.3 139.7 50.4 140.6 50.7 141 c
 51 141.4 51.4 141.6 51.9 141.6 c
 52.3 141.6 52.7 141.4 53 141 c
 53.3 140.6 53.4 139.7 53.4 138.4 c
 53.4 137.1 53.3 136.2 53 135.8 c
 52.7 135.4 52.3 135.2 51.8 135.2 c
 51.4 135.2 51 135.4 50.8 135.7 c
 50.4 136.2 50.3 137.1 50.3 138.4 c
 x
 55.3 138.4 m
 55.3 137.5 55.4 136.7 55.6 136.2 c
 55.8 135.6 56.1 135.1 56.4 134.8 c
 56.8 134.5 57.3 134.4 57.9 134.4 c
 58.3 134.4 58.6 134.5 59 134.6 c
 59.3 134.8 59.5 135.1 59.8 135.4 c
 60 135.7 60.1 136.1 60.2 136.5 c
 60.4 137 60.4 137.6 60.4 138.4 c
 60.4 139.3 60.3 140.1 60.1 140.6 c
 59.9 141.2 59.7 141.6 59.3 142 c
 58.9 142.3 58.4 142.4 57.9 142.4 c
 57.1 142.4 56.5 142.2 56.1 141.6 c
 55.5 140.9 55.3 139.9 55.3 138.4 c
 x
 56.3 138.4 m
 56.3 139.7 56.4 140.6 56.7 141 c
 57 141.4 57.4 141.6 57.9 141.6 c
 58.3 141.6 58.7 141.4 59 141 c
 59.3 140.6 59.4 139.7 59.4 138.4 c
 59.4 137.1 59.3 136.2 59 135.8 c
 58.7 135.4 58.3 135.2 57.8 135.2 c
 57.4 135.2 57 135.4 56.8 135.7 c
 56.4 136.2 56.3 137.1 56.3 138.4 c
 x
 61.8 142.3 m
 61.8 141.2 l
 62.9 141.2 l
 62.9 142.3 l
 62.9 142.7 62.8 143 62.7 143.3 c
 62.6 143.5 62.3 143.7 62 143.9 c
 61.7 143.4 l
 61.9 143.3 62.1 143.2 62.2 143 c
 62.3 142.9 62.4 142.6 62.4 142.3 c
 61.8 142.3 l
 x
 64.3 138.4 m
 64.3 137.5 64.4 136.7 64.6 136.2 c
 64.8 135.6 65.1 135.1 65.4 134.8 c
 65.8 134.5 66.3 134.4 66.9 134.4 c
 67.3 134.4 67.6 134.5 68 134.6 c
 68.3 134.8 68.5 135.1 68.8 135.4 c
 69 135.7 69.1 136.1 69.2 136.5 c
 69.4 137 69.4 137.6 69.4 138.4 c
 69.4 139.3 69.3 140.1 69.1 140.6 c
 68.9 141.2 68.7 141.6 68.3 142 c
 67.9 142.3 67.4 142.4 66.9 142.4 c
 66.1 142.4 65.5 142.2 65.1 141.6 c
 64.5 140.9 64.3 139.9 64.3 138.4 c
 x
 65.3 138.4 m
 65.3 139.7 65.4 140.6 65.7 141 c
 66 141.4 66.4 141.6 66.9 141.6 c
 67.3 141.6 67.7 141.4 68 141 c
 68.3 140.6 68.4 139.7 68.4 138.4 c
 68.4 137.1 68.3 136.2 68 135.8 c
 67.7 135.4 67.3 135.2 66.8 135.2 c
 66.4 135.2 66 135.4 65.8 135.7 c
 65.4 136.2 65.3 137.1 65.3 138.4 c
 x
 70.3 138.4 m
 70.3 137.5 70.4 136.7 70.6 136.2 c
 70.8 135.6 71.1 135.1 71.4 134.8 c
 71.8 134.5 72.3 134.4 72.9 134.4 c
 73.3 134.4 73.6 134.5 74 134.6 c
 74.3 134.8 74.5 135.1 74.8 135.4 c
 75 135.7 75.1 136.1 75.2 136.5 c
 75.4 137 75.4 137.6 75.4 138.4 c
 75.4 139.3 75.3 140.1 75.1 140.6 c
 74.9 141.2 74.7 141.6 74.3 142 c
 73.9 142.3 73.4 142.4 72.9 142.4 c
 72.1 142.4 71.5 142.2 71.1 141.6 c
 70.5 140.9 70.3 139.9 70.3 138.4 c
 x
 71.3 138.4 m
 71.3 139.7 71.4 140.6 71.7 141 c
 72 141.4 72.4 141.6 72.9 141.6 c
 73.3 141.6 73.7 141.4 74 141 c
 74.3 140.6 74.4 139.7 74.4 138.4 c
 74.4 137.1 74.3 136.2 74 135.8 c
 73.7 135.4 73.3 135.2 72.8 135.2 c
 72.4 135.2 72 135.4 71.8 135.7 c
 71.4 136.2 71.3 137.1 71.3 138.4 c
 x
 f
46.4 252.7 m
 46.4 250.8 l
 43 250.8 l
 43 250 l
 46.6 244.9 l
 47.3 244.9 l
 47.3 250 l
 48.4 250 l
 48.4 250.8 l
 47.3 250.8 l
 47.3 252.7 l
 46.4 252.7 l
 x
 46.4 250 m
 46.4 246.4 l
 43.9 250 l
 46.4 250 l
 x
 49.3 248.8 m
 49.3 247.9 49.4 247.2 49.6 246.6 c
 49.8 246 50.1 245.6 50.4 245.3 c
 50.8 245 51.3 244.8 51.9 244.8 c
 52.3 244.8 52.6 244.9 53 245.1 c
 53.3 245.3 53.5 245.5 53.8 245.8 c
 54 246.1 54.1 246.5 54.2 247 c
 54.4 247.5 54.4 248.1 54.4 248.8 c
 54.4 249.8 54.3 250.5 54.1 251.1 c
 53.9 251.7 53.7 252.1 53.3 252.4 c
 52.9 252.7 52.4 252.9 51.9 252.9 c
 51.1 252.9 50.5 252.6 50.1 252 c
 49.5 251.4 49.3 250.3 49.3 248.8 c
 x
 50.3 248.8 m
 50.3 250.1 50.4 251 50.7 251.4 c
 51 251.9 51.4 252.1 51.9 252.1 c
 52.3 252.1 52.7 251.9 53 251.4 c
 53.3 251 53.4 250.1 53.4 248.8 c
 53.4 247.5 53.3 246.7 53 246.3 c
 52.7 245.8 52.3 245.6 51.8 245.6 c
 51.4 245.6 51 245.8 50.8 246.2 c
 50.4 246.7 50.3 247.5 50.3 248.8 c
 x
 55.3 248.8 m
 55.3 247.9 55.4 247.2 55.6 246.6 c
 55.8 246 56.1 245.6 56.4 245.3 c
 56.8 245 57.3 244.8 57.9 244.8 c
 58.3 244.8 58.6 244.9 59 245.1 c
 59.3 245.3 59.5 245.5 59.8 245.8 c
 60 246.1 60.1 246.5 60.2 247 c
 60.4 247.5 60.4 248.1 60.4 248.8 c
 60.4 249.8 60.3 250.5 60.1 251.1 c
 59.9 251.7 59.7 252.1 59.3 252.4 c
 58.9 252.7 58.4 252.9 57.9 252.9 c
 57.1 252.9 56.5 252.6 56.1 252 c
 55.5 251.4 55.3 250.3 55.3 248.8 c
 x
 56.3 248.8 m
 56.3 250.1 56.4 251 56.7 251.4 c
 57 251.9 57.4 252.1 57.9 252.1 c
 58.3 252.1 58.7 251.9 59 251.4 c
 59.3 251 59.4 250.1 59.4 248.8 c
 59.4 247.5 59.3 246.7 59 246.3 c
 58.7 245.8 58.3 245.6 57.8 245.6 c
 57.4 245.6 57 245.8 56.8 246.2 c
 56.4 246.7 56.3 247.5 56.3 248.8 c
 x
 61.8 252.7 m
 61.8 251.6 l
 62.9 251.6 l
 62.9 252.7 l
 62.9 253.1 62.8 253.5 62.7 253.7 c
 62.6 254 62.3 254.2 62 254.3 c
 61.7 253.9 l
 61.9 253.8 62.1 253.7 62.2 253.5 c
 62.3 253.3 62.4 253.1 62.4 252.7 c
 61.8 252.7 l
 x
 64.3 248.8 m
 64.3 247.9 64.4 247.2 64.6 246.6 c
 64.8 246 65.1 245.6 65.4 245.3 c
 65.8 245 66.3 244.8 66.9 244.8 c
 67.3 244.8 67.6 244.9 68 245.1 c
 68.3 245.3 68.5 245.5 68.8 245.8 c
 69 246.1 69.1 246.5 69.2 247 c
 69.4 247.5 69.4 248.1 69.4 248.8 c
 69.4 249.8 69.3 250.5 69.1 251.1 c
 68.9 251.7 68.7 252.1 68.3 252.4 c
 67.9 252.7 67.4 252.9 66.9 252.9 c
 66.1 252.9 65.5 252.6 65.1 252 c
 64.5 251.4 64.3 250.3 64.3 248.8 c
 x
 65.3 248.8 m
 65.3 250.1 65.4 251 65.7 251.4 c
 66 251.9 66.4 252.1 66.9 252.1 c
 67.3 252.1 67.7 251.9 68 251.4 c
 68.3 251 68.4 250.1 68.4 248.8 c
 68.4 247.5 68.3 246.7 68 246.3 c
 67.7 245.8 67.3 245.6 66.8 245.6 c
 66.4 245.6 66 245.8 65.8 246.2 c
 65.4 246.7 65.3 247.5 65.3 248.8 c
 x
 70.3 248.8 m
 70.3 247.9 70.4 247.2 70.6 246.6 c
 70.8 246 71.1 245.6 71.4 245.3 c
 71.8 245 72.3 244.8 72.9 244.8 c
 73.3 244.8 73.6 244.9 74 245.1 c
 74.3 245.3 74.5 245.5 74.8 245.8 c
 75 246.1 75.1 246.5 75.2 247 c
 75.4 247.5 75.4 248.1 75.4 248.8 c
 75.4 249.8 75.3 250.5 75.1 251.1 c
 74.9 251.7 74.7 252.1 74.3 252.4 c
 73.9 252.7 73.4 252.9 72.9 252.9 c
 72.1 252.9 71.5 252.6 71.1 252 c
 70.5 251.4 70.3 250.3 70.3 248.8 c
 x
 71.3 248.8 m
 71.3 250.1 71.4 251 71.7 251.4 c
 72 251.9 72.4 252.1 72.9 252.1 c
 73.3 252.1 73.7 251.9 74 251.4 c
 74.3 251 74.4 250.1 74.4 248.8 c
 74.4 247.5 74.3 246.7 74 246.3 c
 73.7 245.8 73.3 245.6 72.8 245.6 c
 72.4 245.6 72 245.8 71.8 246.2 c
 71.4 246.7 71.3 247.5 71.3 248.8 c
 x
 f
48.4 362.3 m
 48.4 363.2 l
 43.2 363.2 l
 43.2 362.9 43.2 362.7 43.3 362.5 c
 43.4 362.1 43.6 361.8 43.9 361.5 c
 44.2 361.1 44.6 360.7 45.2 360.3 c
 46 359.6 46.6 359 46.9 358.6 c
 47.2 358.2 47.4 357.8 47.4 357.4 c
 47.4 357.1 47.2 356.7 47 356.5 c
 46.7 356.2 46.3 356.1 45.9 356.1 c
 45.4 356.1 45 356.2 44.8 356.5 c
 44.5 356.8 44.3 357.2 44.3 357.6 c
 43.3 357.5 l
 43.4 356.8 43.7 356.2 44.1 355.9 c
 44.6 355.5 45.2 355.3 45.9 355.3 c
 46.7 355.3 47.3 355.5 47.7 355.9 c
 48.1 356.3 48.4 356.8 48.4 357.5 c
 48.4 357.8 48.3 358.1 48.2 358.4 c
 48 358.7 47.8 359 47.5 359.3 c
 47.2 359.7 46.7 360.1 46 360.7 c
 45.4 361.2 45.1 361.5 44.9 361.7 c
 44.8 361.9 44.6 362.1 44.5 362.3 c
 48.4 362.3 l
 x
 49.3 359.3 m
 49.3 358.4 49.4 357.6 49.6 357 c
 49.8 356.5 50.1 356 50.4 355.7 c
 50.8 355.4 51.3 355.3 51.9 355.3 c
 52.3 355.3 52.6 355.4 53 355.5 c
 53.3 355.7 53.5 355.9 53.8 356.3 c
 54 356.6 54.1 357 54.2 357.4 c
 54.4 357.9 54.4 358.5 54.4 359.3 c
 54.4 360.2 54.3 361 54.1 361.5 c
 53.9 362.1 53.7 362.5 53.3 362.8 c
 52.9 363.2 52.4 363.3 51.9 363.3 c
 51.1 363.3 50.5 363 50.1 362.5 c
 49.5 361.8 49.3 360.8 49.3 359.3 c
 x
 50.3 359.3 m
 50.3 360.6 50.4 361.4 50.7 361.9 c
 51 362.3 51.4 362.5 51.9 362.5 c
 52.3 362.5 52.7 362.3 53 361.9 c
 53.3 361.4 53.4 360.6 53.4 359.3 c
 53.4 358 53.3 357.1 53 356.7 c
 52.7 356.3 52.3 356.1 51.8 356.1 c
 51.4 356.1 51 356.3 50.8 356.6 c
 50.4 357.1 50.3 358 50.3 359.3 c
 x
 55.3 359.3 m
 55.3 358.4 55.4 357.6 55.6 357 c
 55.8 356.5 56.1 356 56.4 355.7 c
 56.8 355.4 57.3 355.3 57.9 355.3 c
 58.3 355.3 58.6 355.4 59 355.5 c
 59.3 355.7 59.5 355.9 59.8 356.3 c
 60 356.6 60.1 357 60.2 357.4 c
 60.4 357.9 60.4 358.5 60.4 359.3 c
 60.4 360.2 60.3 361 60.1 361.5 c
 59.9 362.1 59.7 362.5 59.3 362.8 c
 58.9 363.2 58.4 363.3 57.9 363.3 c
 57.1 363.3 56.5 363 56.1 362.5 c
 55.5 361.8 55.3 360.8 55.3 359.3 c
 x
 56.3 359.3 m
 56.3 360.6 56.4 361.4 56.7 361.9 c
 57 362.3 57.4 362.5 57.9 362.5 c
 58.3 362.5 58.7 362.3 59 361.9 c
 59.3 361.4 59.4 360.6 59.4 359.3 c
 59.4 358 59.3 357.1 59 356.7 c
 58.7 356.3 58.3 356.1 57.8 356.1 c
 57.4 356.1 57 356.3 56.8 356.6 c
 56.4 357.1 56.3 358 56.3 359.3 c
 x
 61.8 363.2 m
 61.8 362.1 l
 62.9 362.1 l
 62.9 363.2 l
 62.9 363.6 62.8 363.9 62.7 364.2 c
 62.6 364.4 62.3 364.6 62 364.7 c
 61.7 364.3 l
 61.9 364.2 62.1 364.1 62.2 363.9 c
 62.3 363.7 62.4 363.5 62.4 363.2 c
 61.8 363.2 l
 x
 64.3 359.3 m
 64.3 358.4 64.4 357.6 64.6 357 c
 64.8 356.5 65.1 356 65.4 355.7 c
 65.8 355.4 66.3 355.3 66.9 355.3 c
 67.3 355.3 67.6 355.4 68 355.5 c
 68.3 355.7 68.5 355.9 68.8 356.3 c
 69 356.6 69.1 357 69.2 357.4 c
 69.4 357.9 69.4 358.5 69.4 359.3 c
 69.4 360.2 69.3 361 69.1 361.5 c
 68.9 362.1 68.7 362.5 68.3 362.8 c
 67.9 363.2 67.4 363.3 66.9 363.3 c
 66.1 363.3 65.5 363 65.1 362.5 c
 64.5 361.8 64.3 360.8 64.3 359.3 c
 x
 65.3 359.3 m
 65.3 360.6 65.4 361.4 65.7 361.9 c
 66 362.3 66.4 362.5 66.9 362.5 c
 67.3 362.5 67.7 362.3 68 361.9 c
 68.3 361.4 68.4 360.6 68.4 359.3 c
 68.4 358 68.3 357.1 68 356.7 c
 67.7 356.3 67.3 356.1 66.8 356.1 c
 66.4 356.1 66 356.3 65.8 356.6 c
 65.4 357.1 65.3 358 65.3 359.3 c
 x
 70.3 359.3 m
 70.3 358.4 70.4 357.6 70.6 357 c
 70.8 356.5 71.1 356 71.4 355.7 c
 71.8 355.4 72.3 355.3 72.9 355.3 c
 73.3 355.3 73.6 355.4 74 355.5 c
 74.3 355.7 74.5 355.9 74.8 356.3 c
 75 356.6 75.1 357 75.2 357.4 c
 75.4 357.9 75.4 358.5 75.4 359.3 c
 75.4 360.2 75.3 361 75.1 361.5 c
 74.9 362.1 74.7 362.5 74.3 362.8 c
 73.9 363.2 73.4 363.3 72.9 363.3 c
 72.1 363.3 71.5 363 71.1 362.5 c
 70.5 361.8 70.3 360.8 70.3 359.3 c
 x
 71.3 359.3 m
 71.3 360.6 71.4 361.4 71.7 361.9 c
 72 362.3 72.4 362.5 72.9 362.5 c
 73.3 362.5 73.7 362.3 74 361.9 c
 74.3 361.4 74.4 360.6 74.4 359.3 c
 74.4 358 74.3 357.1 74 356.7 c
 73.7 356.3 73.3 356.1 72.8 356.1 c
 72.4 356.1 72 356.3 71.8 356.6 c
 71.4 357.1 71.3 358 71.3 359.3 c
 x
 f
cr cs 2 4 m
 2 500 l
 409 500 l
 409 4 l
 x
 clip newpath
1 1 1 setrgbcolor
cr cs  clip newpath
327.1 34.2 m
 357.5 34.2 l
 357.5 168.4 l
 327.1 168.4 l
 327.1 34.2 l
 x
 f
0 0 0 setrgbcolor
1 setlinewidth
10 setmiterlimit
2 setlinecap 2 setlinejoin
183 29 m
 322 168 l
 s
188 29 m
 327 168 l
 s
193 29 m
 332 168 l
 s
198 29 m
 337 168 l
 s
203 29 m
 342 168 l
 s
208 29 m
 347 168 l
 s
213 29 m
 352 168 l
 s
218 29 m
 357 168 l
 s
223 29 m
 362 168 l
 s
228 29 m
 367 168 l
 s
233 29 m
 372 168 l
 s
238 29 m
 377 168 l
 s
243 29 m
 382 168 l
 s
248 29 m
 387 168 l
 s
253 29 m
 392 168 l
 s
258 29 m
 397 168 l
 s
263 29 m
 402 168 l
 s
268 29 m
 407 168 l
 s
273 29 m
 412 168 l
 s
278 29 m
 417 168 l
 s
283 29 m
 422 168 l
 s
288 29 m
 427 168 l
 s
293 29 m
 432 168 l
 s
298 29 m
 437 168 l
 s
303 29 m
 442 168 l
 s
308 29 m
 447 168 l
 s
313 29 m
 452 168 l
 s
318 29 m
 457 168 l
 s
323 29 m
 462 168 l
 s
328 29 m
 467 168 l
 s
333 29 m
 472 168 l
 s
338 29 m
 477 168 l
 s
343 29 m
 482 168 l
 s
348 29 m
 487 168 l
 s
353 29 m
 492 168 l
 s
358 29 m
 497 168 l
 s
363 29 m
 502 168 l
 s
368 29 m
 507 168 l
 s
373 29 m
 512 168 l
 s
378 29 m
 517 168 l
 s
383 29 m
 522 168 l
 s
388 29 m
 527 168 l
 s
393 29 m
 532 168 l
 s
398 29 m
 537 168 l
 s
403 29 m
 542 168 l
 s
408 29 m
 547 168 l
 s
413 29 m
 552 168 l
 s
418 29 m
 557 168 l
 s
423 29 m
 562 168 l
 s
428 29 m
 567 168 l
 s
433 29 m
 572 168 l
 s
438 29 m
 577 168 l
 s
443 29 m
 582 168 l
 s
448 29 m
 587 168 l
 s
453 29 m
 592 168 l
 s
458 29 m
 597 168 l
 s
463 29 m
 602 168 l
 s
468 29 m
 607 168 l
 s
473 29 m
 612 168 l
 s
478 29 m
 617 168 l
 s
483 29 m
 622 168 l
 s
488 29 m
 627 168 l
 s
493 29 m
 632 168 l
 s
498 29 m
 637 168 l
 s
2 setmiterlimit
1 setlinecap 1 setlinejoin
cr cs 2 4 m
 2 500 l
 409 500 l
 409 4 l
 x
 clip newpath
327.1 168.4 m
 357.5 168.4 l
 x
 342.3 168.4 m
 342.3 34.2 l
 x
 327.1 34.2 m
 357.5 34.2 l
 x
 s
1 1 1 setrgbcolor
cr cs 311.9 51.3 m
 311.9 113.2 l
 372.7 113.2 l
 372.7 51.3 l
 x
 clip newpath
311.9 51.3 m
 372.7 51.3 l
 372.7 113.2 l
 311.9 113.2 l
 311.9 51.3 l
 x
 f
0 0 0 setrgbcolor
10 setmiterlimit
2 setlinecap 2 setlinejoin
240 46 m
 306 112 l
 s
245 46 m
 311 112 l
 s
250 46 m
 316 112 l
 s
255 46 m
 321 112 l
 s
260 46 m
 326 112 l
 s
265 46 m
 331 112 l
 s
270 46 m
 336 112 l
 s
275 46 m
 341 112 l
 s
280 46 m
 346 112 l
 s
285 46 m
 351 112 l
 s
290 46 m
 356 112 l
 s
295 46 m
 361 112 l
 s
300 46 m
 366 112 l
 s
305 46 m
 371 112 l
 s
310 46 m
 376 112 l
 s
315 46 m
 381 112 l
 s
320 46 m
 386 112 l
 s
325 46 m
 391 112 l
 s
330 46 m
 396 112 l
 s
335 46 m
 401 112 l
 s
340 46 m
 406 112 l
 s
345 46 m
 411 112 l
 s
350 46 m
 416 112 l
 s
355 46 m
 421 112 l
 s
360 46 m
 426 112 l
 s
365 46 m
 431 112 l
 s
370 46 m
 436 112 l
 s
375 46 m
 441 112 l
 s
380 46 m
 446 112 l
 s
385 46 m
 451 112 l
 s
390 46 m
 456 112 l
 s
395 46 m
 461 112 l
 s
400 46 m
 466 112 l
 s
405 46 m
 471 112 l
 s
410 46 m
 476 112 l
 s
415 46 m
 481 112 l
 s
420 46 m
 486 112 l
 s
425 46 m
 491 112 l
 s
430 46 m
 496 112 l
 s
435 46 m
 501 112 l
 s
440 46 m
 506 112 l
 s
2 setmiterlimit
1 setlinecap 1 setlinejoin
cr cs 2 4 m
 2 500 l
 409 500 l
 409 4 l
 x
 clip newpath
372.7 113.2 m
 372.7 51.3 l
 311.9 51.3 l
 311.9 113.2 l
 372.7 113.2 l
 x
 s
1 1 1 setrgbcolor
cr cs  clip newpath
311.9 51.9 m
 372.7 51.9 l
 372.7 51.9 l
 311.9 51.9 l
 311.9 51.9 l
 x
 f
0 0 0 setrgbcolor
cr cs 2 4 m
 2 500 l
 409 500 l
 409 4 l
 x
 clip newpath
311.9 51.9 m
 372.7 51.9 l
 x
 s
1 1 1 setrgbcolor
229 295.9 m
 259.4 295.9 l
 x
 244.2 295.9 m
 244.2 106.5 l
 x
 229 106.5 m
 259.4 106.5 l
 x
 f
0 0 0 setrgbcolor
229 295.9 m
 259.4 295.9 l
 x
 244.2 295.9 m
 244.2 106.5 l
 x
 229 106.5 m
 259.4 106.5 l
 x
 s
1 1 1 setrgbcolor
cr cs 213.8 158.4 m
 213.8 229.7 l
 274.6 229.7 l
 274.6 158.4 l
 x
 clip newpath
213.8 158.4 m
 274.6 158.4 l
 274.6 229.7 l
 213.8 229.7 l
 213.8 158.4 l
 x
 f
0 0 0 setrgbcolor
10 setmiterlimit
2 setlinecap 2 setlinejoin
132 153 m
 208 229 l
 s
137 153 m
 213 229 l
 s
142 153 m
 218 229 l
 s
147 153 m
 223 229 l
 s
152 153 m
 228 229 l
 s
157 153 m
 233 229 l
 s
162 153 m
 238 229 l
 s
167 153 m
 243 229 l
 s
172 153 m
 248 229 l
 s
177 153 m
 253 229 l
 s
182 153 m
 258 229 l
 s
187 153 m
 263 229 l
 s
192 153 m
 268 229 l
 s
197 153 m
 273 229 l
 s
202 153 m
 278 229 l
 s
207 153 m
 283 229 l
 s
212 153 m
 288 229 l
 s
217 153 m
 293 229 l
 s
222 153 m
 298 229 l
 s
227 153 m
 303 229 l
 s
232 153 m
 308 229 l
 s
237 153 m
 313 229 l
 s
242 153 m
 318 229 l
 s
247 153 m
 323 229 l
 s
252 153 m
 328 229 l
 s
257 153 m
 333 229 l
 s
262 153 m
 338 229 l
 s
267 153 m
 343 229 l
 s
272 153 m
 348 229 l
 s
277 153 m
 353 229 l
 s
282 153 m
 358 229 l
 s
287 153 m
 363 229 l
 s
292 153 m
 368 229 l
 s
297 153 m
 373 229 l
 s
302 153 m
 378 229 l
 s
307 153 m
 383 229 l
 s
312 153 m
 388 229 l
 s
317 153 m
 393 229 l
 s
322 153 m
 398 229 l
 s
327 153 m
 403 229 l
 s
332 153 m
 408 229 l
 s
337 153 m
 413 229 l
 s
342 153 m
 418 229 l
 s
347 153 m
 423 229 l
 s
352 153 m
 428 229 l
 s
2 setmiterlimit
1 setlinecap 1 setlinejoin
cr cs 2 4 m
 2 500 l
 409 500 l
 409 4 l
 x
 clip newpath
274.6 229.7 m
 274.6 158.4 l
 213.8 158.4 l
 213.8 229.7 l
 274.6 229.7 l
 x
 s
1 1 1 setrgbcolor
213.8 207.6 m
 274.6 207.6 l
 x
 f
0 0 0 setrgbcolor
213.8 207.6 m
 274.6 207.6 l
 x
 s
1 1 1 setrgbcolor
131 324.1 m
 161.4 324.1 l
 x
 146.2 324.1 m
 146.2 113.2 l
 x
 131 113.2 m
 161.4 113.2 l
 x
 f
0 0 0 setrgbcolor
131 324.1 m
 161.4 324.1 l
 x
 146.2 324.1 m
 146.2 113.2 l
 x
 131 113.2 m
 161.4 113.2 l
 x
 s
1 1 1 setrgbcolor
cr cs 115.8 119.2 m
 115.8 229.7 l
 176.6 229.7 l
 176.6 119.2 l
 x
 clip newpath
115.8 119.2 m
 176.6 119.2 l
 176.6 229.7 l
 115.8 229.7 l
 115.8 119.2 l
 x
 f
0 0 0 setrgbcolor
10 setmiterlimit
2 setlinecap 2 setlinejoin
-5 114 m
 110 229 l
 s
0 114 m
 115 229 l
 s
5 114 m
 120 229 l
 s
10 114 m
 125 229 l
 s
15 114 m
 130 229 l
 s
20 114 m
 135 229 l
 s
25 114 m
 140 229 l
 s
30 114 m
 145 229 l
 s
35 114 m
 150 229 l
 s
40 114 m
 155 229 l
 s
45 114 m
 160 229 l
 s
50 114 m
 165 229 l
 s
55 114 m
 170 229 l
 s
60 114 m
 175 229 l
 s
65 114 m
 180 229 l
 s
70 114 m
 185 229 l
 s
75 114 m
 190 229 l
 s
80 114 m
 195 229 l
 s
85 114 m
 200 229 l
 s
90 114 m
 205 229 l
 s
95 114 m
 210 229 l
 s
100 114 m
 215 229 l
 s
105 114 m
 220 229 l
 s
110 114 m
 225 229 l
 s
115 114 m
 230 229 l
 s
120 114 m
 235 229 l
 s
125 114 m
 240 229 l
 s
130 114 m
 245 229 l
 s
135 114 m
 250 229 l
 s
140 114 m
 255 229 l
 s
145 114 m
 260 229 l
 s
150 114 m
 265 229 l
 s
155 114 m
 270 229 l
 s
160 114 m
 275 229 l
 s
165 114 m
 280 229 l
 s
170 114 m
 285 229 l
 s
175 114 m
 290 229 l
 s
180 114 m
 295 229 l
 s
185 114 m
 300 229 l
 s
190 114 m
 305 229 l
 s
195 114 m
 310 229 l
 s
200 114 m
 315 229 l
 s
205 114 m
 320 229 l
 s
210 114 m
 325 229 l
 s
215 114 m
 330 229 l
 s
220 114 m
 335 229 l
 s
225 114 m
 340 229 l
 s
230 114 m
 345 229 l
 s
235 114 m
 350 229 l
 s
240 114 m
 355 229 l
 s
245 114 m
 360 229 l
 s
250 114 m
 365 229 l
 s
255 114 m
 370 229 l
 s
260 114 m
 375 229 l
 s
265 114 m
 380 229 l
 s
270 114 m
 385 229 l
 s
275 114 m
 390 229 l
 s
280 114 m
 395 229 l
 s
285 114 m
 400 229 l
 s
290 114 m
 405 229 l
 s
295 114 m
 410 229 l
 s
2 setmiterlimit
1 setlinecap 1 setlinejoin
cr cs 2 4 m
 2 500 l
 409 500 l
 409 4 l
 x
 clip newpath
176.6 229.7 m
 176.6 119.2 l
 115.8 119.2 l
 115.8 229.7 l
 176.6 229.7 l
 x
 s
1 1 1 setrgbcolor
115.8 165.9 m
 176.6 165.9 l
 x
 f
0 0 0 setrgbcolor
115.8 165.9 m
 176.6 165.9 l
 x
 s
cr cs 80 4 m
 80 436 l
 409 436 l
 409 4 l
 x
 clip newpath
1 1 1 setrgbcolor
149.5 399.2 m
 149.5 401.1 148 402.5 146.2 402.5 c
 144.4 402.5 142.9 401.1 142.9 399.2 c
 142.9 397.4 144.4 395.9 146.2 395.9 c
 148 395.9 149.5 397.4 149.5 399.2 c
 x
 f
0 0 0 setrgbcolor
149.5 399.2 m
 149.5 401.1 148 402.5 146.2 402.5 c
 144.4 402.5 142.9 401.1 142.9 399.2 c
 142.9 397.4 144.4 395.9 146.2 395.9 c
 148 395.9 149.5 397.4 149.5 399.2 c
 x
 s
cr grestore
